<?xml version="1.0" encoding="iso-8859-1"?>
<!-- Generator: Adobe Illustrator 19.0.0, SVG Export Plug-In . SVG Version: 6.00 Build 0)  -->
<svg version="1.1" id="Capa_1" xmlns="http://www.w3.org/2000/svg" xmlns:xlink="http://www.w3.org/1999/xlink" x="0px" y="0px"
	 viewBox="0 0 512.002 512.002" style="enable-background:new 0 0 512.002 512.002;" xml:space="preserve">
<path d="M185.55,314.159c-30.008,0-54.42,24.412-54.42,54.42c0,30.007,24.412,54.419,54.42,54.419s54.42-24.413,54.42-54.419
	C239.971,338.571,215.558,314.159,185.55,314.159z M185.55,407.998c-21.735,0-39.419-17.683-39.419-39.418
	s17.684-39.419,39.419-39.419s39.419,17.684,39.419,39.419S207.286,407.998,185.55,407.998z"/>
<path d="M368.102,231.749c-1.194-2.73-3.892-4.494-6.871-4.494h-19.228c-4.143,0-7.5,3.357-7.5,7.5c0,4.143,3.357,7.5,7.5,7.5
	h14.322l0.96,2.193c1.658,3.788,6.073,5.528,9.878,3.865c3.795-1.66,5.525-6.082,3.865-9.878L368.102,231.749z"/>
<path d="M497.997,322.197v-69.941c0-4.143-3.357-7.5-7.5-7.5s-7.5,3.357-7.5,7.5v69.634h-28.993c0-5.929,0-181.895,0-191.635
	c0-9.668-7.865-17.532-17.532-17.532H324.448c-9.668,0-17.532,7.864-17.532,17.532c0,9.133,0,185.823,0,191.635h-49.163
	c-15.642-24.089-42.704-39.187-72.056-39.187c-29.235,0-56.342,14.982-72.057,39.187H29.005v-74.649
	c0-96.326,78.367-174.694,174.695-174.694h70.332c4.143,0,7.5-3.357,7.5-7.5s-3.357-7.5-7.5-7.5h-70.332
	c-104.598,0-189.695,85.096-189.695,189.694v74.956C6.044,323.697,0,330.689,0,339.077v18.248c0,9.478,7.71,17.187,17.188,17.187
	h82.861c3.061,44.592,40.292,79.942,85.647,79.942s82.586-35.35,85.646-79.942h167.66v41.259H428.6
	c-8.937,0-16.206,7.27-16.206,16.206v6.27c0,8.937,7.27,16.206,16.206,16.206h35.807c8.937,0,16.206-7.27,16.206-16.206v-6.27
	c0-8.937-7.27-16.206-16.206-16.206h-10.403v-41.259h40.811c9.477,0,17.186-7.71,17.186-17.187v-18.248
	C512,330.689,505.956,323.697,497.997,322.197z M100.303,359.511H17.188c-1.206,0-2.187-0.98-2.187-2.186v-18.248
	c0-1.205,0.98-2.186,2.187-2.186c2.726,0-9.601,0.001,88.704,0.001C102.984,344.241,101.115,351.812,100.303,359.511z
	 M185.696,439.453c-39.08,0-70.874-31.794-70.874-70.873c0-38.793,31.581-70.874,70.874-70.874
	c39.011,0,70.873,31.817,70.873,70.874C256.57,407.659,224.776,439.453,185.696,439.453z M321.915,130.256
	c0-1.396,1.136-2.531,2.531-2.531H436.47c1.396,0,2.531,1.136,2.531,2.531v15.28H321.915V130.256z M321.915,160.537h117.086V321.89
	H321.915V160.537z M464.406,430.772c0.642,0,1.205,0.563,1.205,1.205v6.27c0,0.642-0.563,1.205-1.205,1.205h-35.807
	c-0.642,0-1.205-0.563-1.205-1.205v-6.27c0-0.642,0.563-1.205,1.205-1.205H464.406z M496.999,357.326
	c0,1.205-0.98,2.186-2.185,2.186H271.087c-0.829-7.865-2.741-15.419-5.588-22.618c11.294,0,218.376-0.001,229.315-0.001
	c1.204,0,2.185,0.98,2.185,2.186V357.326z"/>
<path d="M259.031,112.724h-73.567c-63.849,0-115.553,51.99-115.553,115.553c0,9.092,7.396,16.487,16.487,16.487H259.03
	c9.091,0,16.488-7.394,16.488-16.487v-99.066C275.519,120.119,268.121,112.724,259.031,112.724z M171.066,128.777v76.743H87.523
	C96.824,165.397,130.237,134.669,171.066,128.777z M260.517,228.277c0,0.819-0.667,1.486-1.486,1.486H86.398
	c-0.819,0-1.486-0.667-1.486-1.486c0-2.342,0.105-5.162,0.309-7.756c3.408,0,173.764,0,175.297,0L260.517,228.277L260.517,228.277z
	 M260.518,205.519h-74.451v-77.795h72.963c0.82,0,1.487,0.667,1.487,1.486V205.519z"/>
<path d="M185.55,349.104c-10.738,0-19.474,8.736-19.474,19.475c0,10.738,8.736,19.474,19.474,19.474
	c10.739,0,19.475-8.736,19.475-19.474C205.025,357.84,196.289,349.104,185.55,349.104z M185.55,373.052
	c-2.466,0-4.473-2.007-4.473-4.473c0-2.467,2.007-4.474,4.473-4.474c2.467,0,4.474,2.007,4.474,4.474
	C190.025,371.044,188.017,373.052,185.55,373.052z"/>
<path d="M309.034,72.549h154.973c10.471,0,18.989,8.52,18.989,18.989v125.716c0,4.143,3.357,7.5,7.5,7.5s7.5-3.357,7.5-7.5V91.539
	c0-18.742-15.248-33.99-33.99-33.99H309.034c-4.143,0-7.5,3.357-7.5,7.5S304.89,72.549,309.034,72.549z"/>
<g>
</g>
<g>
</g>
<g>
</g>
<g>
</g>
<g>
</g>
<g>
</g>
<g>
</g>
<g>
</g>
<g>
</g>
<g>
</g>
<g>
</g>
<g>
</g>
<g>
</g>
<g>
</g>
<g>
</g>
</svg>
