<?xml version="1.0" encoding="UTF-8"?>
<svg width="223px" height="29px" viewBox="0 0 223 29" version="1.1" xmlns="http://www.w3.org/2000/svg" xmlns:xlink="http://www.w3.org/1999/xlink">
    <!-- Generator: Sketch 49.1 (51147) - http://www.bohemiancoding.com/sketch -->
    <title>brand / logo big</title>
    <desc>Created with Sketch.</desc>
    <defs></defs>
    <g id="Symbols" stroke="none" stroke-width="1" fill="none" fill-rule="evenodd">
        <g id="brand-/-logo-big" fill="#F66138">
            <g id="1.-Atoms-/-Brand-/-Logo">
                <g id="Logo">
                    <path d="M2.17011236,24.4344937 C1.2216236,23.8925562 0.611747191,23.4919937 0.336741573,23.2346187 C0.057994382,22.9754312 -0.0486404494,22.7615562 0.0205786517,22.5893687 C0.0841853933,22.4153687 0.196432584,22.3048062 0.355449438,22.2558687 C0.512595506,22.2069312 0.682837079,22.2631188 0.868044944,22.4226187 C1.05138202,22.5839312 1.46669663,22.8848063 2.11024719,23.3270562 C2.75566854,23.7693062 3.8987191,24.3058062 5.54501124,24.9311187 C7.18943258,25.5600562 8.81514607,25.8736187 10.4184101,25.8736187 C13.0786685,25.8736187 15.318,25.2591812 17.1476292,24.0284937 C18.9772584,22.7978063 19.8939438,21.2843687 19.8939438,19.4881812 C19.8939438,18.0853062 19.4580506,17.0268062 18.5900056,16.3144937 C18.1166966,15.9211812 17.6677079,15.5949312 17.2486517,15.3357437 C16.8277247,15.0765562 16.2084944,14.8246187 15.3928315,14.5781187 C14.4462135,14.2844937 13.2563933,13.9763687 11.8215,13.6555562 C10.384736,13.3347437 9.40631461,13.1081812 8.87875281,12.9722438 C8.3530618,12.8381187 7.65712921,12.6351188 6.78721348,12.3632437 C5.91916854,12.0931812 5.25691011,11.8104312 4.79669663,11.5168063 C4.33461236,11.2195562 3.84072472,10.8516187 3.31690449,10.4075562 C2.36841573,9.57199375 1.89510674,8.33586875 1.89510674,6.69918125 C1.89510674,5.06249375 2.72947753,3.63968125 4.40008989,2.43436875 C6.07070225,1.22905625 8.09115169,0.62549375 10.4595674,0.62549375 C13.0637022,0.62549375 15.3928315,1.29068125 17.4450843,2.61924375 C18.1821742,3.08686875 18.6554831,3.46930625 18.8650112,3.76293125 C19.0764101,3.98586875 19.0633146,4.20699375 18.8257247,4.42811875 C18.5357528,4.60030625 18.3000337,4.58943125 18.1166966,4.39186875 C16.1149551,2.52136875 13.5632022,1.58611875 10.4595674,1.58611875 C8.3811236,1.58611875 6.6038764,2.08999375 5.13156742,3.09955625 C3.65738764,4.10911875 2.92029775,5.32711875 2.92029775,6.75355625 C2.92029775,8.10749375 3.47217978,9.26386875 4.57781461,10.2226812 C5.39347753,10.9132437 6.81340449,11.5023063 8.84133708,11.9953062 C9.41941011,12.1421187 10.2537809,12.3342438 11.3463202,12.5680562 C12.4388596,12.8018687 13.2563933,12.9867437 13.7951798,13.1208687 C14.3320955,13.2568063 15.0429944,13.4598062 15.9260056,13.7298687 C16.8071461,13.9999312 17.4862416,14.2899312 17.9576798,14.5980562 C18.4309888,14.9061812 18.919264,15.2940562 19.4168933,15.7598687 C20.391573,16.5972438 20.8798483,17.8388062 20.8798483,19.4881812 C20.8798483,21.5308687 19.8714944,23.2599937 17.8603989,24.6737437 C15.8455618,26.0893062 13.4116685,26.7961812 10.5568483,26.7961812 C7.70389888,26.7961812 4.90707303,26.0095562 2.17011236,24.4344937" id="Fill-1"></path>
                    <path d="M35.0995096,26.1328062 L35.1930489,1.78730625 L26.0748354,1.78730625 C25.6812577,1.78730625 25.4687006,1.59494966 25.4687006,1.23449375 C25.4687006,0.875562219 25.6815654,0.68349375 26.0748354,0.68349375 L45.2971669,0.68349375 C45.6879923,0.68349375 45.9033017,0.876706337 45.9033017,1.23449375 C45.9033017,1.59380151 45.6883009,1.78730625 45.2971669,1.78730625 L36.3117792,1.69668125 L36.3117792,26.1328062 C36.3117792,26.2819645 36.2484711,26.4173451 36.1260228,26.5297296 C36.0040931,26.6436416 35.8631529,26.7019312 35.7056444,26.7019312 C35.3126078,26.7019312 35.0995096,26.5028257 35.0995096,26.1328062 Z" id="Stroke-5" fill-rule="nonzero"></path>
                    <path d="M73.2944312,22.2633548 C75.6729799,19.9054865 76.8725736,17.0652473 76.8983121,13.7324559 C76.872561,10.3697202 75.6721057,7.50787902 73.2941252,5.13989128 C70.9142273,2.77182426 68.0669287,1.59065 64.7381933,1.59065 C61.4088345,1.59065 58.5540155,2.77228311 56.1631761,5.14026592 C53.7720759,7.50850695 52.5780809,10.3624968 52.5780809,13.7108375 C52.5780809,17.0605296 53.764271,19.9056361 56.1426688,22.2633548 C58.5196917,24.6197105 61.3819199,25.8202361 64.7381806,25.8690622 C68.0674147,25.8202492 70.9149731,24.6203031 73.2944312,22.2633548 Z M55.0574474,4.14072121 C57.7077653,1.50108738 60.9317695,0.1787125 64.7176146,0.1787125 C68.5035291,0.1787125 71.7347576,1.50111837 74.3978346,4.14019798 C77.059789,6.78000734 78.4184569,9.9788675 78.469746,13.7337587 C78.4184524,17.5069391 77.0667992,20.7180807 74.4187652,23.3554397 C71.7687383,25.9947835 68.5373006,27.317275 64.7381933,27.317275 C60.9390859,27.317275 57.7076482,25.9947835 55.0575042,23.355323 C52.41095,20.715648 51.0706214,17.5031309 51.0440415,13.7292179 C51.0706214,9.98233723 52.4106846,6.78244778 55.0574474,4.14072121 Z" id="Stroke-9" fill-rule="nonzero"></path>
                    <path d="M95.2243433,26.9739875 L94.9359144,26.9341282 C94.7595346,26.9259379 94.5902983,26.7652599 94.4098985,26.4608595 L83.2582436,1.65981953 C83.0736403,1.35641035 83.0899455,1.03454223 83.32855,0.78531162 C83.5260712,0.578756579 83.7938988,0.485311785 84.0956005,0.504816831 C84.4061848,0.521849343 84.6647473,0.658700212 84.8721266,0.961318828 L95.2250233,24.0063632 L105.606931,0.988204867 C105.787522,0.478933015 106.24554,0.318554094 106.688793,0.53441541 C107.198138,0.664947661 107.390261,1.07805962 107.213005,1.6205266 L96.0234811,26.4240733 C95.9750522,26.6631286 95.8157561,26.8346504 95.5398935,26.9106007 C95.449499,26.9592083 95.346678,26.9739875 95.2243433,26.9739875 Z" id="Stroke-13" fill-rule="nonzero"></path>
                    <path d="M130.092437,25.1904875 C130.693523,25.1904875 131.080212,25.5684635 131.080212,26.1511125 C131.080212,26.733961 130.693306,27.109925 130.092437,27.109925 L115.371217,27.109925 C114.766267,27.109925 114.381571,26.7229223 114.381571,26.1329875 L114.381571,1.2528 C114.381571,0.724370727 114.735944,0.367872655 115.371217,0.2758625 L130.092437,0.2758625 C130.692949,0.2758625 131.080212,0.653286665 131.080212,1.234675 C131.080212,1.81732399 130.693523,2.1953 130.092437,2.1953 L116.396408,2.1953 L116.396408,12.71505 L128.397504,12.71505 C128.99521,12.71505 129.383408,13.0933858 129.383408,13.6738625 C129.383408,14.2555972 128.995784,14.6344875 128.397504,14.6344875 L116.396408,14.6344875 L116.396408,25.1904875 L130.092437,25.1904875 Z" id="Stroke-17" fill-rule="nonzero"></path>
                    <path d="M139.907518,4.60432779 L139.907518,26.1319 C139.907518,26.7960298 139.464867,27.2465875 138.781304,27.2465875 C138.474732,27.2465875 138.195985,27.1302368 137.971352,26.9202387 C137.743218,26.7071058 137.612063,26.4351346 137.612063,26.1319 L137.612063,1.3278375 C137.612063,0.99795206 137.756422,0.704439105 138.158952,0.361096568 C138.697502,0.0850627958 139.258902,0.143108377 139.701,0.615189157 L156.755821,22.7803906 L156.755821,1.4384 C156.755821,1.13596675 156.883428,0.863088613 157.11766,0.644157624 C157.341589,0.438827616 157.618466,0.3237125 157.925063,0.3237125 C158.610028,0.3237125 159.051276,0.775459652 159.051276,1.4384 L159.051276,26.1319 C159.051276,26.7963477 158.610254,27.2465875 157.925063,27.2465875 C157.498917,27.2465875 157.141108,27.0629063 156.93361,26.7319955 C156.893793,26.6895135 156.85958,26.6419079 156.832105,26.5901333 L139.907518,4.60432779 Z" id="Stroke-21" fill-rule="nonzero"></path>
                    <path d="M173.756521,24.919234 C177.109714,24.873068 179.933698,23.7625617 182.273721,21.5739147 C184.607776,19.3891493 185.776194,16.7640708 185.800741,13.6622098 C185.776199,10.5728667 184.606944,7.95096811 182.272612,5.75573218 C179.93481,3.55893798 177.115758,2.46771875 173.767819,2.46771875 L169.747498,2.46771875 L169.747498,24.919234 L173.756521,24.919234 Z M167.171425,26.1335312 L167.171425,1.25334375 C167.171425,0.502874796 167.703707,0.00271875 168.479105,0.00271875 L173.767819,0.00271875 C177.78702,0.00271875 181.240961,1.34134653 184.089263,4.00330767 C186.939416,6.66884662 188.37679,9.91532911 188.37679,13.6925312 C188.37679,17.4708815 186.939918,20.7157457 184.08927,23.3817482 C181.242327,26.0443522 177.788788,27.3823437 173.767819,27.3823437 L168.479105,27.3823437 C167.704194,27.3823437 167.171425,26.8845578 167.171425,26.1335312 Z" id="Stroke-25" fill-rule="nonzero"></path>
                    <path d="M216.238207,21.9461939 C218.388865,19.623158 219.397785,16.9063405 219.281712,13.7596748 C219.114262,10.5758472 217.866654,7.93419224 215.518283,5.78707293 C213.173942,3.6452246 210.461899,2.65252219 207.323352,2.7833437 C204.185801,2.9141237 201.564773,4.13080848 199.407349,6.46167579 C197.246215,8.79467185 196.243892,11.5228468 196.384947,14.6913383 C196.526003,17.8615493 197.758726,20.4872919 200.105253,22.6209366 C202.447079,24.7503072 205.175606,25.7628255 208.343055,25.6804058 C211.477351,25.5012111 214.090217,24.2661546 216.238207,21.9461939 Z M207.179602,0.0136951531 C211.15338,-0.150833515 214.623501,1.10193616 217.537431,3.75298387 C220.444406,6.39770374 222.022922,9.700914 222.254636,13.6412761 C222.375828,17.5852795 221.104197,21.0212272 218.455948,23.8956273 C215.801323,26.7810516 212.452764,28.3200005 208.466482,28.4864029 C204.481307,28.6528425 201.010147,27.4000036 198.108308,24.7472374 C195.214053,22.0995824 193.654368,18.7792587 193.451168,14.826739 C193.304072,10.9076135 194.563432,7.48363681 197.212134,4.60459787 C199.865505,1.71865672 203.205966,0.180237082 207.179602,0.0136951531 Z" id="Stroke-29" fill-rule="nonzero"></path>
                </g>
            </g>
        </g>
    </g>
</svg>